<svg width="224" height="45" viewBox="0 0 224 45" fill="none" xmlns="http://www.w3.org/2000/svg">
<path d="M17.6762 17.8662C19.0763 16.5468 19.1894 14.2893 17.9287 12.824C16.668 11.3587 14.511 11.2404 13.1109 12.5598C11.7107 13.8791 11.5977 16.1366 12.8584 17.602C14.119 19.0673 16.2761 19.1856 17.6762 17.8662Z" fill="white"/>
<path d="M30.8703 31.6366C27.5719 32.3856 25.5261 32.2397 24.1349 31.5741C24.5936 31.0184 25.0231 30.4369 25.4214 29.8322C25.4214 29.8322 17.2608 26.9493 21.1285 22.5168C23.3867 20.4998 25.3439 18.1408 26.9353 15.5179C27.0172 15.3796 27.0498 15.2157 27.0275 15.0547C27.0052 14.8938 26.9294 14.7463 26.8134 14.6381C26.6975 14.5299 26.5487 14.4679 26.3934 14.4632C26.2381 14.4584 26.0862 14.5111 25.9644 14.612C23.3445 16.8912 20.3209 18.6073 17.0667 19.6622C14.9733 20.3105 12.7628 20.4294 10.617 20.0091C8.60965 19.6202 6.75063 18.6379 5.25966 17.1785C5.14739 17.0528 4.99438 16.9755 4.83053 16.9617C4.66669 16.9479 4.50381 16.9985 4.37374 17.1037C4.24367 17.2088 4.15577 17.361 4.12722 17.5304C4.09868 17.6998 4.13154 17.8743 4.21939 18.0197C5.80921 20.3768 7.9488 22.2689 10.4346 23.5162C11.8043 24.4852 13.9507 26.6728 11.4749 29.7785C11.3771 29.9004 11.2835 30.0311 11.1906 30.1654C9.36159 32.1041 8.00301 34.4732 7.22853 37.0743C6.55422 39.1732 6.1555 41.3583 6.04332 43.5695C6.04021 43.7311 6.09109 43.8886 6.18719 44.0151C6.28329 44.1415 6.41856 44.2288 6.56963 44.2619C6.72071 44.2951 6.8781 44.2719 7.01461 44.1966C7.15113 44.1211 7.25819 43.9982 7.3173 43.849C8.20299 41.2409 9.54073 38.8262 11.2634 36.7259C14.4829 37.2345 17.771 36.5504 20.5599 34.7916C21.6265 35.1557 22.7418 35.3392 23.8638 35.3353C25.0599 35.3281 26.249 35.1439 27.3958 34.788C28.8104 34.3637 30.1564 33.7203 31.389 32.8791C31.5143 32.7878 31.6055 32.6537 31.647 32.4999C31.6884 32.3461 31.6777 32.1819 31.6165 32.0355C31.5553 31.889 31.4475 31.7693 31.3114 31.6967C31.1754 31.6241 31.0195 31.6031 30.8703 31.6373V31.6366Z" fill="white"/>
<path d="M34.1861 8.35235C34.7272 8.4358 35.2799 8.34944 35.7742 8.10418C36.2684 7.85892 36.6821 7.46579 36.9629 6.97448C37.2436 6.48317 37.3789 5.91577 37.3515 5.34401C37.3242 4.77225 37.1354 4.22182 36.8092 3.76233C36.4829 3.30283 36.0338 2.9549 35.5186 2.76254C35.0034 2.57018 34.4453 2.54202 33.9148 2.68163C33.3843 2.82124 32.9053 3.12234 32.5383 3.54687C32.1713 3.97139 31.9329 4.50027 31.8531 5.06662C31.7465 5.82606 31.9324 6.59872 32.3698 7.21483C32.8073 7.83093 33.4606 8.24007 34.1861 8.35235Z" fill="#FA771B"/>
<path d="M49.0021 18.4355C48.9439 18.284 48.8364 18.1589 48.6985 18.0824C48.5607 18.0059 48.4014 17.9829 48.2489 18.0175C45.3632 18.6707 43.2335 18.3165 41.9186 16.9607C40.7888 15.7994 40.2736 13.8143 40.4622 11.5041C41.5219 11.3763 44.2481 10.8683 46.6344 12.4164C46.7586 12.5193 46.9116 12.5769 47.0699 12.5804C47.2283 12.584 47.3834 12.5332 47.5117 12.436C47.6348 12.3264 47.7152 12.1734 47.7377 12.0059C47.7602 11.8385 47.7232 11.6682 47.6338 11.5273C47.5492 11.3952 46.1961 8.98045 41.8776 8.21037C37.668 7.45843 32.862 9.1844 27.5969 13.3389C27.4682 13.44 27.3792 13.5868 27.3467 13.7518C27.3141 13.9167 27.3402 14.0884 27.4201 14.2346C27.5 14.3808 27.6282 14.4914 27.7805 14.5457C27.9329 14.5999 28.0989 14.5941 28.2474 14.5292C29.9095 13.8388 31.6081 13.2492 33.335 12.7634C33.3766 12.9876 33.4258 13.2308 33.4834 13.4964C33.7206 14.6117 34.0532 15.7024 34.4772 16.7553C33.1001 17.9196 31.9988 19.4014 31.2593 21.0847C30.6483 22.4384 30.2802 23.898 30.1733 25.3909C30.168 25.5496 30.2151 25.7052 30.3067 25.8318C30.3983 25.9583 30.5287 26.0479 30.6761 26.0855C30.7276 26.0984 30.7805 26.105 30.8335 26.1051C30.958 26.1051 31.0799 26.0682 31.1852 25.9988C31.2905 25.9293 31.3749 25.83 31.4285 25.7125C31.9774 24.3512 32.8204 23.1416 33.8914 22.179C34.9624 21.2163 36.2321 20.5267 37.6008 20.1644C39.0333 20.797 40.5732 21.1199 42.128 21.1138C43.057 21.1117 43.9831 21.0051 44.8903 20.7959C46.2377 20.4999 47.5336 19.9885 48.7323 19.2796C48.865 19.1947 48.9648 19.0634 49.0141 18.909C49.0635 18.7546 49.0592 18.587 49.0021 18.4355Z" fill="#FA771B"/>
<path d="M10.1394 1.60129L10.0943 1.57661C9.36509 1.14957 8.56248 0.877363 7.73253 0.775606C6.90257 0.673849 6.06158 0.744541 5.25778 0.983627C4.44956 1.22085 3.69501 1.62533 3.03877 2.17312C2.38254 2.72091 1.83795 3.40089 1.43724 4.17282C0.596436 5.76144 0.384252 7.63174 0.846231 9.38225C1.30821 11.1328 2.40753 12.6239 3.90821 13.5357L3.9526 13.5604C5.46743 14.4119 7.24298 14.6002 8.89024 14.0841C10.5375 13.5681 11.9221 12.3897 12.7408 10.8071C13.5594 9.22462 13.7453 7.36702 13.2577 5.64133C12.7701 3.91565 11.6488 2.4626 10.1394 1.60056V1.60129ZM5.06429 11.3917L5.03586 11.3757C4.07192 10.7982 3.36368 9.84702 3.06408 8.72764C2.76447 7.60827 2.89754 6.41048 3.43455 5.3929C3.69105 4.89873 4.04 4.46366 4.46059 4.11364C4.88118 3.76361 5.36481 3.5058 5.88264 3.35556C6.39845 3.20366 6.93786 3.15996 7.46987 3.22697C8.00188 3.29399 8.51598 3.47039 8.98263 3.74605L9.01175 3.76201C9.97849 4.30986 10.6977 5.23718 11.0111 6.33999C11.3246 7.44279 11.2066 8.63074 10.6831 9.6425C10.1596 10.6543 9.27358 11.4069 8.21985 11.735C7.16612 12.063 6.03103 11.9395 5.06429 11.3917Z" fill="#FA771B"/>
<path d="M3.86039 16.1702C4.22894 15.4201 4.48173 14.6136 4.60938 13.7808L3.38048 13.0913C2.79182 13.667 2.28794 14.3308 1.88527 15.0611L0.378968 18.0057C0.305219 18.161 0.292291 18.3403 0.342935 18.5054C0.39358 18.6705 0.503799 18.8084 0.65013 18.8898L1.53852 19.3891C1.60897 19.4282 1.68618 19.452 1.7656 19.4594C1.84501 19.4667 1.92502 19.4572 2.0009 19.4317C2.07678 19.4061 2.147 19.3649 2.20742 19.3105C2.26785 19.256 2.31724 19.1895 2.3527 19.1148L3.86039 16.1702Z" fill="#FA771B"/>
<path d="M128.128 14.0566C128.916 14.3733 129.645 14.8292 130.285 15.4045L128.478 17.6501C127.716 16.908 126.718 16.4869 125.677 16.4678C125.184 16.458 124.697 16.5826 124.263 16.8291C123.829 17.0757 123.464 17.4359 123.204 17.8744C122.594 18.8121 122.289 20.2424 122.289 22.1653C122.289 24.0718 122.594 25.4862 123.204 26.4084C123.478 26.8478 123.856 27.2058 124.301 27.4479C124.746 27.6901 125.243 27.8083 125.745 27.7911C126.273 27.7983 126.795 27.6771 127.27 27.4369C127.808 27.1491 128.319 26.8089 128.796 26.4207L130.468 28.6903C129.852 29.3204 129.133 29.8289 128.345 30.1913C127.471 30.6 126.523 30.8058 125.566 30.7945C124.246 30.8282 122.942 30.4849 121.794 29.8016C120.697 29.1074 119.826 28.0812 119.298 26.8584C118.668 25.384 118.363 23.7804 118.405 22.1661C118.366 20.5763 118.679 18.9986 119.32 17.5565C119.864 16.3408 120.736 15.318 121.828 14.6133C122.924 13.9334 124.179 13.5854 125.453 13.6081C126.363 13.5887 127.269 13.7407 128.128 14.0566Z" fill="white"/>
<path d="M141.545 27.7911C141.691 28.0278 141.912 28.2034 142.169 28.2876L141.424 30.7227C140.799 30.6918 140.187 30.5226 139.628 30.2262C139.141 29.9256 138.757 29.4703 138.533 28.9263C138.14 29.5428 137.6 30.04 136.965 30.3679C136.331 30.6958 135.625 30.8427 134.919 30.7938C134.399 30.8203 133.88 30.7377 133.392 30.5507C132.903 30.3637 132.456 30.0762 132.075 29.7051C131.72 29.3349 131.443 28.8917 131.26 28.4034C131.077 27.9152 130.993 27.3926 131.014 26.8686C130.983 26.2597 131.1 25.6525 131.352 25.103C131.605 24.5535 131.986 24.0794 132.459 23.7244C133.711 22.918 135.171 22.5376 136.638 22.6357H137.858V22.0921C137.888 21.8191 137.864 21.5424 137.786 21.2799C137.708 21.0175 137.578 20.7749 137.406 20.5679C136.94 20.2436 136.382 20.0974 135.825 20.1542C135.346 20.1648 134.87 20.2243 134.402 20.332C133.821 20.4565 133.247 20.6182 132.685 20.8161L131.869 18.3593C132.62 18.0607 133.394 17.8312 134.184 17.6734C134.909 17.5232 135.647 17.4442 136.386 17.4375C138.103 17.4375 139.36 17.8079 140.158 18.5487C140.578 18.9795 140.902 19.5009 141.109 20.0766C141.316 20.6523 141.4 21.2684 141.355 21.8816V26.751C141.331 27.1091 141.396 27.4676 141.545 27.7911ZM137.028 27.8151C137.365 27.5961 137.648 27.2963 137.852 26.9405V24.6948H136.971C136.336 24.6471 135.701 24.8039 135.153 25.1441C134.95 25.3056 134.789 25.5179 134.684 25.7614C134.58 26.005 134.535 26.2721 134.555 26.5384C134.528 26.9643 134.662 27.384 134.927 27.7084C135.061 27.8495 135.221 27.9594 135.398 28.0307C135.576 28.102 135.765 28.1332 135.955 28.1221C136.333 28.1259 136.704 28.0196 137.028 27.8151Z" fill="white"/>
<path d="M158.836 18.4421C159.444 19.2226 159.751 20.214 159.694 21.2197V30.3917H156.125V21.8577C156.125 20.739 155.786 20.1797 155.109 20.1797C154.741 20.1763 154.385 20.3201 154.115 20.5817C153.769 20.936 153.486 21.3521 153.279 21.8105V30.3917H149.71V21.8577C149.71 20.739 149.371 20.1797 148.694 20.1797C148.328 20.1816 147.976 20.3295 147.711 20.5934C147.364 20.945 147.077 21.3568 146.864 21.8105V30.3917H143.295V17.8353H146.413L146.661 19.3014C147.073 18.7203 147.601 18.2403 148.208 17.8948C148.807 17.579 149.47 17.4208 150.14 17.4339C150.753 17.419 151.355 17.6003 151.867 17.9536C152.367 18.3141 152.749 18.8256 152.963 19.4197C153.388 18.8107 153.932 18.303 154.558 17.9304C155.173 17.5903 155.861 17.4195 156.557 17.4339C156.984 17.4166 157.41 17.498 157.803 17.6722C158.197 17.8464 158.55 18.1093 158.836 18.4421Z" fill="white"/>
<path d="M171.564 19.1869C172.42 20.6726 172.826 22.3954 172.727 24.1274C172.746 25.3057 172.551 26.477 172.151 27.5787C171.821 28.511 171.25 29.3293 170.502 29.9426C169.77 30.5159 168.875 30.8157 167.961 30.794C167.34 30.8038 166.725 30.6621 166.165 30.3803C165.63 30.104 165.169 29.6939 164.821 29.1863L164.64 30.3919H161.481V12.8513L165.05 12.4492V19.1158C165.41 18.6003 165.882 18.1828 166.428 17.8986C167.292 17.4407 168.282 17.3188 169.224 17.5548C170.165 17.7908 170.996 18.3692 171.567 19.1869H171.564ZM169.023 24.1274C169.101 23.0721 168.93 22.0128 168.525 21.0428C168.387 20.7754 168.181 20.5533 167.93 20.401C167.679 20.2487 167.393 20.1721 167.102 20.1798C166.665 20.205 166.242 20.3548 165.88 20.613C165.517 20.8713 165.229 21.2282 165.047 21.6452V26.8463C165.227 27.2122 165.498 27.5199 165.832 27.7364C166.167 27.9529 166.551 28.07 166.944 28.0751C168.33 28.0751 169.023 26.7592 169.023 24.1274Z" fill="white"/>
<path d="M181.761 17.6502L181.196 21.2669C180.842 21.171 180.478 21.1155 180.112 21.1014C179.807 21.0843 179.502 21.1441 179.223 21.2757C178.944 21.4073 178.699 21.6068 178.509 21.8577C178.061 22.5383 177.76 23.3128 177.627 24.1273V30.3917H174.059V17.8353H177.176L177.469 20.2464C177.69 19.4619 178.117 18.7579 178.7 18.2142C179.215 17.7394 179.878 17.4785 180.564 17.4811C180.969 17.4777 181.372 17.5347 181.761 17.6502Z" fill="white"/>
<path d="M186.403 11.8228C186.786 12.2288 187 12.7764 187 13.347C187 13.9175 186.786 14.4651 186.403 14.8711C186.199 15.0726 185.96 15.2297 185.698 15.3331C185.436 15.4365 185.157 15.4843 184.877 15.4736C184.599 15.4849 184.322 15.4373 184.062 15.3338C183.802 15.2303 183.564 15.0729 183.364 14.8711C182.987 14.4616 182.777 13.9153 182.777 13.347C182.777 12.7786 182.987 12.2323 183.364 11.8228C183.564 11.6211 183.802 11.4638 184.062 11.3603C184.322 11.2568 184.599 11.2092 184.877 11.2203C185.157 11.2098 185.436 11.2576 185.698 11.361C185.96 11.4645 186.199 11.6214 186.403 11.8228ZM183.119 30.3918V17.8353H186.688V30.3918H183.119Z" fill="white"/>
<path d="M199.334 30.3916H196.172L195.991 28.9262C195.634 29.4891 195.154 29.9549 194.591 30.2849C193.974 30.6352 193.281 30.8103 192.58 30.793C191.913 30.8278 191.249 30.6805 190.653 30.3654C190.057 30.0503 189.55 29.5783 189.181 28.9959C188.334 27.5149 187.929 25.8028 188.018 24.0793C187.998 22.9025 188.201 21.7332 188.617 20.6397C188.97 19.7009 189.569 18.8856 190.345 18.2873C191.116 17.7143 192.042 17.4161 192.987 17.4367C193.503 17.4342 194.013 17.5386 194.49 17.7437C194.963 17.9477 195.396 18.2431 195.766 18.6147V12.4453L199.334 12.8474L199.334 30.3916ZM195.765 26.6566V21.2196C195.518 20.9081 195.224 20.6407 194.895 20.4277C194.598 20.2454 194.258 20.1513 193.913 20.1556C193.589 20.1505 193.268 20.2367 192.986 20.4051C192.704 20.5734 192.47 20.8179 192.309 21.1129C191.856 22.0346 191.652 23.069 191.722 24.1032C191.644 25.1561 191.819 26.2126 192.23 27.177C192.377 27.4503 192.592 27.6762 192.853 27.8298C193.114 27.9834 193.411 28.0589 193.71 28.048C194.139 28.0249 194.555 27.8842 194.915 27.64C195.276 27.3958 195.569 27.0567 195.765 26.6566Z" fill="white"/>
<path d="M208.821 19.0682C209.49 19.3287 210.082 19.769 210.537 20.3448C210.919 20.9182 211.109 21.6067 211.08 22.3045C211.089 23.0734 210.877 23.8274 210.469 24.4674C210.034 25.1313 209.427 25.6521 208.719 25.9691C207.874 26.3491 206.961 26.5345 206.042 26.5127C205.579 26.5136 205.118 26.4649 204.665 26.3676C204.543 26.4319 204.444 26.5355 204.382 26.663C204.316 26.7899 204.281 26.9321 204.281 27.0767C204.276 27.1846 204.298 27.2918 204.343 27.3889C204.389 27.4859 204.456 27.5696 204.54 27.6327C204.865 27.8012 205.229 27.8708 205.591 27.8337H207.398C208.226 27.8156 209.049 27.9765 209.815 28.3062C210.453 28.5774 211.008 29.0271 211.418 29.6061C211.792 30.1496 211.99 30.804 211.983 31.4736C211.998 32.088 211.856 32.6954 211.572 33.2335C211.288 33.7715 210.873 34.2208 210.368 34.5351C208.944 35.357 207.327 35.7384 205.704 35.6347C204.534 35.6786 203.365 35.5146 202.248 35.1498C201.526 34.9223 200.9 34.4425 200.475 33.7904C200.115 33.1207 199.939 32.3598 199.966 31.5919H203.174C203.158 31.9071 203.232 32.2201 203.388 32.4905C203.584 32.7466 203.86 32.9223 204.167 32.9869C204.701 33.1144 205.247 33.17 205.794 33.1524C206.49 33.2115 207.189 33.0868 207.826 32.7895C208.003 32.6846 208.149 32.5313 208.249 32.3459C208.348 32.1606 208.398 31.9504 208.392 31.7378C208.397 31.5626 208.36 31.3887 208.285 31.2318C208.21 31.075 208.099 30.9401 207.962 30.8393C207.577 30.5907 207.126 30.4749 206.675 30.5083H204.936C203.967 30.581 203 30.3373 202.169 29.8108C201.886 29.6168 201.654 29.3518 201.495 29.0401C201.335 28.7284 201.252 28.3798 201.254 28.0261C201.259 27.5519 201.392 27.0889 201.638 26.6906C201.899 26.2515 202.255 25.8831 202.678 25.6149C202.015 25.274 201.45 24.7563 201.04 24.114C200.686 23.48 200.51 22.755 200.531 22.0215C200.508 21.3847 200.626 20.7509 200.877 20.1704C201.128 19.5898 201.505 19.0785 201.977 18.6769C203.069 17.8057 204.42 17.3661 205.792 17.4358C206.825 17.4896 207.859 17.3618 208.852 17.0577C209.756 16.7412 210.624 16.3208 211.439 15.8042L212.271 18.5702C211.159 18.9532 209.99 19.1219 208.821 19.0682ZM204.563 20.4472C204.221 20.8719 204.048 21.4171 204.077 21.9714C204.042 22.5409 204.216 23.1031 204.563 23.5435C204.923 23.8982 205.399 24.0966 205.893 24.0988C206.388 24.1009 206.865 23.9066 207.228 23.5551C207.569 23.0895 207.734 22.5089 207.691 21.9242C207.691 20.5694 207.089 19.8919 205.884 19.8919C205.638 19.8799 205.393 19.9236 205.165 20.02C204.937 20.1165 204.731 20.2635 204.563 20.4508V20.4472Z" fill="white"/>
<path d="M223.273 25.2147H215.868C215.879 26.0365 216.174 26.8263 216.7 27.4371C217.226 27.8884 217.894 28.1162 218.573 28.0751C219.051 28.0758 219.526 27.9838 219.973 27.8036C220.492 27.584 220.984 27.3022 221.441 26.9638L222.909 29.0447C221.593 30.1797 219.939 30.7983 218.234 30.7939C217.408 30.8498 216.581 30.7181 215.809 30.4079C215.037 30.0977 214.339 29.6163 213.761 28.9968C212.673 27.6563 212.115 25.9312 212.203 24.1746C212.184 22.9923 212.407 21.8196 212.857 20.735C213.266 19.7257 213.957 18.87 214.841 18.2812C215.724 17.6924 216.758 17.3982 217.804 17.4376C218.559 17.3949 219.315 17.525 220.017 17.819C220.719 18.1129 221.352 18.5636 221.87 19.1396C222.912 20.4653 223.436 22.1542 223.338 23.8676C223.343 24.3176 223.321 24.7674 223.273 25.2147ZM219.84 22.8035C219.81 20.8811 219.163 19.9199 217.899 19.9199C217.625 19.9045 217.352 19.9601 217.104 20.0817C216.856 20.2032 216.64 20.387 216.476 20.6167C216.072 21.3294 215.854 22.1405 215.844 22.969H219.842L219.84 22.8035Z" fill="white"/>
<path d="M69.0436 16.6513C69.3233 16.6617 69.6023 16.6139 69.8642 16.5104C70.1262 16.407 70.3658 16.2501 70.5693 16.0489C70.9523 15.6429 71.1671 15.0953 71.1671 14.5247C71.1671 13.9541 70.9523 13.4065 70.5693 13.0005C70.3659 12.7991 70.1263 12.6421 69.8643 12.5387C69.6024 12.4353 69.3234 12.3875 69.0436 12.3981C68.7656 12.3869 68.4883 12.4345 68.2283 12.538C67.9683 12.6415 67.7309 12.7988 67.5303 13.0005C67.1543 13.4103 66.9443 13.9565 66.9443 14.5247C66.9443 15.0929 67.1543 15.639 67.5303 16.0489C67.731 16.2505 67.9684 16.4077 68.2284 16.5112C68.4884 16.6147 68.7656 16.6623 69.0436 16.6513Z" fill="white"/>
<path d="M70.9219 17.8594H67.3926V30.418H70.9219V17.8594Z" fill="white"/>
<path d="M76.2862 21.8048C76.8514 20.7161 77.572 20.1739 78.2974 20.1739C78.4539 20.1618 78.6109 20.1888 78.7556 20.2525C78.9003 20.3162 79.0284 20.4149 79.1296 20.5404C79.3481 20.9376 79.4413 21.3968 79.3959 21.8527V30.4172H83.066V21.214C83.1045 20.1908 82.7642 19.1916 82.1159 18.4247C81.7908 18.0861 81.4013 17.8228 80.9728 17.6517C80.5443 17.4807 80.0862 17.4058 79.6282 17.4318C78.9393 17.4228 78.2582 17.5847 77.6406 17.9043C76.996 18.2645 76.4231 18.7503 75.9526 19.3356L75.6988 17.8593H72.6196V30.4158H76.2897L76.2862 21.8048Z" fill="white"/>
<path d="M107.768 26.2494C107.768 29.2593 109.008 30.7719 111.629 30.7878C112.202 30.7857 112.772 30.6982 113.321 30.528C113.859 30.3725 114.369 30.1248 114.829 29.7949L113.62 27.407C113.237 27.6732 112.789 27.8209 112.33 27.8331C112.175 27.8475 112.019 27.8204 111.878 27.7542C111.736 27.688 111.613 27.585 111.52 27.4549C111.328 27.0695 111.251 26.6331 111.298 26.2015V20.5184H113.569L113.953 17.859H111.298V14.6895L107.768 15.1148V17.859H106.074V20.5184H107.768V26.2494Z" fill="white"/>
<path d="M88.7059 30.788C89.3776 30.8067 90.0429 30.6467 90.6395 30.3228C91.236 29.999 91.7442 29.522 92.1166 28.9365L92.2976 30.4172H95.4877V13.1313H91.957V18.6134C91.5682 18.2503 91.1261 17.955 90.6477 17.7388C90.1655 17.5336 89.6495 17.4293 89.1289 17.4318C88.1812 17.4113 87.2522 17.7094 86.4783 18.2824C85.7005 18.8803 85.0996 19.6956 84.7445 20.6347C84.3283 21.7282 84.1242 22.8975 84.144 24.0743C84.0548 25.798 84.4595 27.5103 85.3063 28.9917C85.6751 29.5742 86.1826 30.0462 86.7787 30.3612C87.3748 30.6762 88.039 30.8233 88.7059 30.788ZM88.434 21.108C88.5952 20.8129 88.829 20.5684 89.1111 20.4C89.3933 20.2317 89.7134 20.1455 90.0381 20.1506C90.3937 20.1461 90.7441 20.2398 91.0541 20.4221C91.3938 20.633 91.6983 20.9004 91.9557 21.2139V26.6509C91.7544 27.0541 91.4557 27.3951 91.0893 27.6398C90.7229 27.8846 90.3017 28.0246 89.8675 28.0459C89.5659 28.0571 89.2671 27.9819 89.0034 27.8284C88.7397 27.6749 88.521 27.449 88.3709 27.175C87.9565 26.2118 87.7791 25.1553 87.8549 24.1019C87.7829 23.0673 87.9832 22.0318 88.434 21.108Z" fill="white"/>
<path d="M104.521 13.1313H100.851V30.4179H104.521V13.1313Z" fill="white"/>
<path d="M60.6165 23.4734H65.1341V20.6659H60.6165V15.938H65.777L65.8428 15.8655V13.1313H56.9458V30.4172H60.6165V23.4734Z" fill="white"/>
</svg>
