<svg width="35" height="34" viewBox="0 0 35 34" fill="none" xmlns="http://www.w3.org/2000/svg">
<path fill-rule="evenodd" clip-rule="evenodd" d="M4.85449 8.50008C4.85449 6.93527 6.12302 5.66675 7.68783 5.66675H27.5212C29.086 5.66675 30.3545 6.93527 30.3545 8.50008V28.3334C30.3545 29.8983 29.086 31.1668 27.5212 31.1668H7.68783C6.12302 31.1668 4.85449 29.8983 4.85449 28.3334V8.50008Z" stroke="#2A0058" stroke-width="4" stroke-linecap="round" stroke-linejoin="round"/>
<path d="M23.2715 2.83325V8.49992" stroke="#2A0058" stroke-width="4" stroke-linecap="round" stroke-linejoin="round"/>
<path d="M11.9375 2.83325V8.49992" stroke="#2A0058" stroke-width="4" stroke-linecap="round" stroke-linejoin="round"/>
<path d="M4.85449 14.1667H30.3545" stroke="#2A0058" stroke-width="4" stroke-linecap="round" stroke-linejoin="round"/>
</svg>
