<svg width="65" height="65" viewBox="0 0 65 65" fill="none" xmlns="http://www.w3.org/2000/svg">
<circle cx="32.5" cy="32.5" r="32.5" fill="#FF911C"/>
<path d="M45.5705 45.9091H43.3158V15.1818C43.3158 14 42.5642 13 41.5979 13H23.8821C22.9516 13 22.1642 13.9545 22.1642 15.1818V18.4545H16.3663C15.4358 18.4545 14.6484 19.4091 14.6484 20.6364V45.9091H12.4295C12.1789 45.9091 12 46.1364 12 46.4545C12 46.7727 12.1789 47 12.4295 47H45.5705C45.8211 47 46 46.7727 46 46.4545C46 46.1364 45.8211 45.9091 45.5705 45.9091ZM23.8821 14.0909H41.6337C42.0989 14.0909 42.4926 14.5909 42.4926 15.1818V45.9091H35.3347V39.2273C35.3347 38.6364 34.9411 38.1364 34.4758 38.1364H31.04C30.5747 38.1364 30.1811 38.6364 30.1811 39.2273V45.9091H23.0232V15.1818C23.0232 14.5909 23.3811 14.0909 23.8821 14.0909ZM34.44 45.9091H31.0042V39.2273H34.44V45.9091ZM15.5432 20.6364C15.5432 20.0455 15.9368 19.5455 16.4021 19.5455H22.1642V45.9091H15.5432V20.6364Z" stroke="#2A0058" stroke-width="2"/>
<mask id="path-3-inside-1" fill="white">
<path d="M27.1778 22.1802H28.2707C28.6653 22.1802 28.9992 21.7795 28.9992 21.3059V19.9943C28.9992 19.5207 28.6653 19.12 28.2707 19.12H27.1778C26.7832 19.12 26.4492 19.5207 26.4492 19.9943V21.3059C26.4492 21.7795 26.7832 22.1802 27.1778 22.1802ZM27.1778 19.9943H28.2707V21.3059H27.1778V19.9943Z"/>
</mask>
<path d="M26.4492 21.3059H27.4492H26.4492ZM27.1778 19.9943V18.9943H26.1778V19.9943H27.1778ZM28.2707 19.9943H29.2707V18.9943H28.2707V19.9943ZM28.2707 21.3059V22.3059H29.2707V21.3059H28.2707ZM27.1778 21.3059H26.1778V22.3059H27.1778V21.3059ZM27.1778 23.1802H28.2707V21.1802H27.1778V23.1802ZM28.2707 23.1802C29.3806 23.1802 29.9992 22.1532 29.9992 21.3059H27.9992C27.9992 21.3116 27.9959 21.303 28.0147 21.2805C28.0326 21.259 28.1149 21.1802 28.2707 21.1802V23.1802ZM29.9992 21.3059V19.9943H27.9992V21.3059H29.9992ZM29.9992 19.9943C29.9992 19.147 29.3806 18.12 28.2707 18.12V20.12C28.1149 20.12 28.0326 20.0412 28.0147 20.0197C27.9959 19.9972 27.9992 19.9886 27.9992 19.9943H29.9992ZM28.2707 18.12H27.1778V20.12H28.2707V18.12ZM27.1778 18.12C26.0678 18.12 25.4492 19.147 25.4492 19.9943H27.4492C27.4492 19.9886 27.4525 19.9972 27.4338 20.0197C27.4158 20.0412 27.3336 20.12 27.1778 20.12V18.12ZM25.4492 19.9943V21.3059H27.4492V19.9943H25.4492ZM25.4492 21.3059C25.4492 22.1532 26.0678 23.1802 27.1778 23.1802V21.1802C27.3336 21.1802 27.4158 21.259 27.4338 21.2805C27.4525 21.303 27.4492 21.3116 27.4492 21.3059L25.4492 21.3059ZM27.1778 20.9943H28.2707V18.9943H27.1778V20.9943ZM27.2707 19.9943V21.3059H29.2707V19.9943H27.2707ZM28.2707 20.3059H27.1778V22.3059H28.2707V20.3059ZM28.1778 21.3059V19.9943H26.1778V21.3059H28.1778Z" fill="#2A0058" mask="url(#path-3-inside-1)"/>
<mask id="path-5-inside-2" fill="white">
<path d="M30.5792 22.1802H31.672C32.0667 22.1802 32.4006 21.7795 32.4006 21.3059V19.9943C32.4006 19.5207 32.0667 19.12 31.672 19.12H30.5792C30.1845 19.12 29.8506 19.5207 29.8506 19.9943V21.3059C29.8506 21.7795 30.1845 22.1802 30.5792 22.1802ZM30.5792 19.9943H31.672V21.3059H30.5792V19.9943Z"/>
</mask>
<path d="M29.8506 21.3059H30.8506H29.8506ZM30.5792 19.9943V18.9943H29.5792V19.9943H30.5792ZM31.672 19.9943H32.672V18.9943H31.672V19.9943ZM31.672 21.3059V22.3059H32.672V21.3059H31.672ZM30.5792 21.3059H29.5792V22.3059H30.5792V21.3059ZM30.5792 23.1802H31.672V21.1802H30.5792V23.1802ZM31.672 23.1802C32.782 23.1802 33.4006 22.1532 33.4006 21.3059H31.4006C31.4006 21.3116 31.3973 21.303 31.4161 21.2805C31.434 21.259 31.5163 21.1802 31.672 21.1802V23.1802ZM33.4006 21.3059V19.9943H31.4006V21.3059H33.4006ZM33.4006 19.9943C33.4006 19.147 32.782 18.12 31.672 18.12V20.12C31.5163 20.12 31.434 20.0412 31.4161 20.0197C31.3973 19.9972 31.4006 19.9886 31.4006 19.9943H33.4006ZM31.672 18.12H30.5792V20.12H31.672V18.12ZM30.5792 18.12C29.4692 18.12 28.8506 19.147 28.8506 19.9943H30.8506C30.8506 19.9886 30.8539 19.9972 30.8351 20.0197C30.8172 20.0412 30.7349 20.12 30.5792 20.12V18.12ZM28.8506 19.9943V21.3059H30.8506V19.9943H28.8506ZM28.8506 21.3059C28.8506 22.1532 29.4692 23.1802 30.5792 23.1802V21.1802C30.7349 21.1802 30.8172 21.259 30.8351 21.2805C30.8539 21.303 30.8506 21.3116 30.8506 21.3059L28.8506 21.3059ZM30.5792 20.9943H31.672V18.9943H30.5792V20.9943ZM30.672 19.9943V21.3059H32.672V19.9943H30.672ZM31.672 20.3059H30.5792V22.3059H31.672V20.3059ZM31.5792 21.3059V19.9943H29.5792V21.3059H31.5792Z" fill="#2A0058" mask="url(#path-5-inside-2)"/>
<mask id="path-7-inside-3" fill="white">
<path d="M34.8282 22.1802H35.9211C36.3157 22.1802 36.6496 21.7795 36.6496 21.3059V19.9943C36.6496 19.5207 36.3157 19.12 35.9211 19.12H34.8282C34.4335 19.12 34.0996 19.5207 34.0996 19.9943V21.3059C34.0996 21.7795 34.4335 22.1802 34.8282 22.1802ZM34.8282 19.9943H35.9211V21.3059H34.8282V19.9943Z"/>
</mask>
<path d="M34.0996 21.3059L33.0996 21.3059L34.0996 21.3059ZM34.8282 19.9943V18.9943H33.8282V19.9943H34.8282ZM35.9211 19.9943H36.9211V18.9943H35.9211V19.9943ZM35.9211 21.3059V22.3059H36.9211V21.3059H35.9211ZM34.8282 21.3059H33.8282V22.3059H34.8282V21.3059ZM34.8282 23.1802H35.9211V21.1802H34.8282V23.1802ZM35.9211 23.1802C37.031 23.1802 37.6496 22.1532 37.6496 21.3059H35.6496C35.6496 21.3116 35.6463 21.303 35.6651 21.2805C35.683 21.259 35.7653 21.1802 35.9211 21.1802V23.1802ZM37.6496 21.3059V19.9943H35.6496V21.3059H37.6496ZM37.6496 19.9943C37.6496 19.147 37.031 18.12 35.9211 18.12V20.12C35.7653 20.12 35.683 20.0412 35.6651 20.0197C35.6463 19.9972 35.6496 19.9886 35.6496 19.9943H37.6496ZM35.9211 18.12H34.8282V20.12H35.9211V18.12ZM34.8282 18.12C33.7182 18.12 33.0996 19.147 33.0996 19.9943H35.0996C35.0996 19.9886 35.1029 19.9972 35.0841 20.0197C35.0662 20.0412 34.984 20.12 34.8282 20.12V18.12ZM33.0996 19.9943V21.3059H35.0996V19.9943H33.0996ZM33.0996 21.3059C33.0996 22.1532 33.7182 23.1802 34.8282 23.1802V21.1802C34.984 21.1802 35.0662 21.259 35.0841 21.2805C35.1029 21.303 35.0996 21.3116 35.0996 21.3059L33.0996 21.3059ZM34.8282 20.9943H35.9211V18.9943H34.8282V20.9943ZM34.9211 19.9943V21.3059H36.9211V19.9943H34.9211ZM35.9211 20.3059H34.8282V22.3059H35.9211V20.3059ZM35.8282 21.3059V19.9943H33.8282V21.3059H35.8282Z" fill="#2A0058" mask="url(#path-7-inside-3)"/>
<mask id="path-9-inside-4" fill="white">
<path d="M38.2286 22.1802H39.3214C39.7161 22.1802 40.05 21.7795 40.05 21.3059V19.9943C40.05 19.5207 39.7161 19.12 39.3214 19.12H38.2286C37.8339 19.12 37.5 19.5207 37.5 19.9943V21.3059C37.5 21.7795 37.8339 22.1802 38.2286 22.1802ZM38.2286 19.9943H39.3214V21.3059H38.2286V19.9943Z"/>
</mask>
<path d="M37.5 21.3059L36.5 21.3059L37.5 21.3059ZM38.2286 19.9943V18.9943H37.2286V19.9943H38.2286ZM39.3214 19.9943H40.3214V18.9943H39.3214V19.9943ZM39.3214 21.3059V22.3059H40.3214V21.3059H39.3214ZM38.2286 21.3059H37.2286V22.3059H38.2286V21.3059ZM38.2286 23.1802H39.3214V21.1802H38.2286V23.1802ZM39.3214 23.1802C40.4314 23.1802 41.05 22.1532 41.05 21.3059H39.05C39.05 21.3116 39.0467 21.303 39.0655 21.2805C39.0834 21.259 39.1657 21.1802 39.3214 21.1802V23.1802ZM41.05 21.3059V19.9943H39.05V21.3059H41.05ZM41.05 19.9943C41.05 19.147 40.4314 18.12 39.3214 18.12V20.12C39.1657 20.12 39.0834 20.0412 39.0655 20.0197C39.0467 19.9972 39.05 19.9886 39.05 19.9943H41.05ZM39.3214 18.12H38.2286V20.12H39.3214V18.12ZM38.2286 18.12C37.1186 18.12 36.5 19.147 36.5 19.9943H38.5C38.5 19.9886 38.5033 19.9972 38.4845 20.0197C38.4666 20.0412 38.3843 20.12 38.2286 20.12V18.12ZM36.5 19.9943V21.3059H38.5V19.9943H36.5ZM36.5 21.3059C36.5 22.1532 37.1186 23.1802 38.2286 23.1802V21.1802C38.3843 21.1802 38.4666 21.259 38.4845 21.2805C38.5033 21.303 38.5 21.3116 38.5 21.3059L36.5 21.3059ZM38.2286 20.9943H39.3214V18.9943H38.2286V20.9943ZM38.3214 19.9943V21.3059H40.3214V19.9943H38.3214ZM39.3214 20.3059H38.2286V22.3059H39.3214V20.3059ZM39.2286 21.3059V19.9943H37.2286V21.3059H39.2286Z" fill="#2A0058" mask="url(#path-9-inside-4)"/>
<mask id="path-11-inside-5" fill="white">
<path d="M27.1778 26.26H28.2707C28.6653 26.26 28.9992 25.8593 28.9992 25.3857V24.0743C28.9992 23.6007 28.6653 23.2 28.2707 23.2H27.1778C26.7832 23.2 26.4492 23.6007 26.4492 24.0743V25.3857C26.4492 25.8957 26.7832 26.26 27.1778 26.26ZM27.1778 24.1107H28.2707V25.4222H27.1778V24.1107Z"/>
</mask>
<path d="M26.4492 25.3857H27.4492H26.4492ZM27.1778 24.1107V23.1107H26.1778V24.1107H27.1778ZM28.2707 24.1107H29.2707V23.1107H28.2707V24.1107ZM28.2707 25.4222V26.4222H29.2707V25.4222H28.2707ZM27.1778 25.4222H26.1778V26.4222H27.1778V25.4222ZM27.1778 27.26H28.2707V25.26H27.1778V27.26ZM28.2707 27.26C29.3806 27.26 29.9992 26.2331 29.9992 25.3857H27.9992C27.9992 25.3915 27.9959 25.3828 28.0147 25.3603C28.0327 25.3387 28.1149 25.26 28.2707 25.26V27.26ZM29.9992 25.3857V24.0743H27.9992V25.3857H29.9992ZM29.9992 24.0743C29.9992 23.2269 29.3806 22.2 28.2707 22.2V24.2C28.1149 24.2 28.0327 24.1213 28.0147 24.0998C27.9959 24.0772 27.9992 24.0686 27.9992 24.0743H29.9992ZM28.2707 22.2H27.1778V24.2H28.2707V22.2ZM27.1778 22.2C26.0679 22.2 25.4492 23.2269 25.4492 24.0743H27.4492C27.4492 24.0686 27.4525 24.0772 27.4337 24.0998C27.4158 24.1213 27.3335 24.2 27.1778 24.2V22.2ZM25.4492 24.0743V25.3857H27.4492V24.0743H25.4492ZM25.4492 25.3857C25.4492 26.2987 26.0925 27.26 27.1778 27.26V25.26C27.3022 25.26 27.3878 25.3202 27.4245 25.363C27.4602 25.4046 27.4492 25.4226 27.4492 25.3857L25.4492 25.3857ZM27.1778 25.1107H28.2707V23.1107H27.1778V25.1107ZM27.2707 24.1107V25.4222H29.2707V24.1107H27.2707ZM28.2707 24.4222H27.1778V26.4222H28.2707V24.4222ZM28.1778 25.4222V24.1107H26.1778V25.4222H28.1778Z" fill="#2A0058" mask="url(#path-11-inside-5)"/>
<mask id="path-13-inside-6" fill="white">
<path d="M30.5792 26.26H31.672C32.0667 26.26 32.4006 25.8593 32.4006 25.3857V24.0743C32.4006 23.6007 32.0667 23.2 31.672 23.2H30.5792C30.1845 23.2 29.8506 23.6007 29.8506 24.0743V25.3857C29.8506 25.8957 30.1845 26.26 30.5792 26.26ZM30.5792 24.1107H31.672V25.4222H30.5792V24.1107Z"/>
</mask>
<path d="M29.8506 25.3857H30.8506H29.8506ZM30.5792 24.1107V23.1107H29.5792V24.1107H30.5792ZM31.672 24.1107H32.672V23.1107H31.672V24.1107ZM31.672 25.4222V26.4222H32.672V25.4222H31.672ZM30.5792 25.4222H29.5792V26.4222H30.5792V25.4222ZM30.5792 27.26H31.672V25.26H30.5792V27.26ZM31.672 27.26C32.7819 27.26 33.4006 26.2331 33.4006 25.3857H31.4006C31.4006 25.3915 31.3973 25.3828 31.4161 25.3603C31.434 25.3387 31.5163 25.26 31.672 25.26V27.26ZM33.4006 25.3857V24.0743H31.4006V25.3857H33.4006ZM33.4006 24.0743C33.4006 23.2269 32.7819 22.2 31.672 22.2V24.2C31.5163 24.2 31.434 24.1213 31.4161 24.0998C31.3973 24.0772 31.4006 24.0686 31.4006 24.0743H33.4006ZM31.672 22.2H30.5792V24.2H31.672V22.2ZM30.5792 22.2C29.4693 22.2 28.8506 23.2269 28.8506 24.0743H30.8506C30.8506 24.0686 30.8539 24.0772 30.8351 24.0998C30.8172 24.1213 30.7349 24.2 30.5792 24.2V22.2ZM28.8506 24.0743V25.3857H30.8506V24.0743H28.8506ZM28.8506 25.3857C28.8506 26.2987 29.4939 27.26 30.5792 27.26V25.26C30.7036 25.26 30.7891 25.3202 30.8259 25.363C30.8616 25.4046 30.8506 25.4226 30.8506 25.3857L28.8506 25.3857ZM30.5792 25.1107H31.672V23.1107H30.5792V25.1107ZM30.672 24.1107V25.4222H32.672V24.1107H30.672ZM31.672 24.4222H30.5792V26.4222H31.672V24.4222ZM31.5792 25.4222V24.1107H29.5792V25.4222H31.5792Z" fill="#2A0058" mask="url(#path-13-inside-6)"/>
<mask id="path-15-inside-7" fill="white">
<path d="M34.8282 26.26H35.9211C36.3157 26.26 36.6496 25.8593 36.6496 25.3857V24.0743C36.6496 23.6007 36.3157 23.2 35.9211 23.2H34.8282C34.4335 23.2 34.0996 23.6007 34.0996 24.0743V25.3857C34.0996 25.8957 34.4335 26.26 34.8282 26.26ZM34.8282 24.1107H35.9211V25.4222H34.8282V24.1107Z"/>
</mask>
<path d="M34.0996 25.3857L33.0996 25.3857L34.0996 25.3857ZM34.8282 24.1107V23.1107H33.8282V24.1107H34.8282ZM35.9211 24.1107H36.9211V23.1107H35.9211V24.1107ZM35.9211 25.4222V26.4222H36.9211V25.4222H35.9211ZM34.8282 25.4222H33.8282V26.4222H34.8282V25.4222ZM34.8282 27.26H35.9211V25.26H34.8282V27.26ZM35.9211 27.26C37.0309 27.26 37.6496 26.2331 37.6496 25.3857H35.6496C35.6496 25.3915 35.6463 25.3828 35.6651 25.3603C35.6831 25.3387 35.7653 25.26 35.9211 25.26V27.26ZM37.6496 25.3857V24.0743H35.6496V25.3857H37.6496ZM37.6496 24.0743C37.6496 23.2269 37.0309 22.2 35.9211 22.2V24.2C35.7653 24.2 35.6831 24.1213 35.6651 24.0998C35.6463 24.0772 35.6496 24.0686 35.6496 24.0743H37.6496ZM35.9211 22.2H34.8282V24.2H35.9211V22.2ZM34.8282 22.2C33.7183 22.2 33.0996 23.2269 33.0996 24.0743H35.0996C35.0996 24.0686 35.1029 24.0772 35.0841 24.0998C35.0662 24.1213 34.9839 24.2 34.8282 24.2V22.2ZM33.0996 24.0743V25.3857H35.0996V24.0743H33.0996ZM33.0996 25.3857C33.0996 26.2987 33.7429 27.26 34.8282 27.26V25.26C34.9526 25.26 35.0381 25.3202 35.0749 25.363C35.1106 25.4046 35.0996 25.4226 35.0996 25.3857L33.0996 25.3857ZM34.8282 25.1107H35.9211V23.1107H34.8282V25.1107ZM34.9211 24.1107V25.4222H36.9211V24.1107H34.9211ZM35.9211 24.4222H34.8282V26.4222H35.9211V24.4222ZM35.8282 25.4222V24.1107H33.8282V25.4222H35.8282Z" fill="#2A0058" mask="url(#path-15-inside-7)"/>
<mask id="path-17-inside-8" fill="white">
<path d="M38.2286 26.26H39.3214C39.7161 26.26 40.05 25.8593 40.05 25.3857V24.0743C40.05 23.6007 39.7161 23.2 39.3214 23.2H38.2286C37.8339 23.2 37.5 23.6007 37.5 24.0743V25.3857C37.5 25.8957 37.8339 26.26 38.2286 26.26ZM38.2286 24.1107H39.3214V25.4222H38.2286V24.1107Z"/>
</mask>
<path d="M37.5 25.3857L36.5 25.3857L37.5 25.3857ZM38.2286 24.1107V23.1107H37.2286V24.1107H38.2286ZM39.3214 24.1107H40.3214V23.1107H39.3214V24.1107ZM39.3214 25.4222V26.4222H40.3214V25.4222H39.3214ZM38.2286 25.4222H37.2286V26.4222H38.2286V25.4222ZM38.2286 27.26H39.3214V25.26H38.2286V27.26ZM39.3214 27.26C40.4313 27.26 41.05 26.2331 41.05 25.3857H39.05C39.05 25.3915 39.0467 25.3828 39.0655 25.3603C39.0834 25.3387 39.1657 25.26 39.3214 25.26V27.26ZM41.05 25.3857V24.0743H39.05V25.3857H41.05ZM41.05 24.0743C41.05 23.2269 40.4313 22.2 39.3214 22.2V24.2C39.1657 24.2 39.0834 24.1213 39.0655 24.0998C39.0467 24.0772 39.05 24.0686 39.05 24.0743H41.05ZM39.3214 22.2H38.2286V24.2H39.3214V22.2ZM38.2286 22.2C37.1187 22.2 36.5 23.2269 36.5 24.0743H38.5C38.5 24.0686 38.5033 24.0772 38.4845 24.0998C38.4666 24.1213 38.3843 24.2 38.2286 24.2V22.2ZM36.5 24.0743V25.3857H38.5V24.0743H36.5ZM36.5 25.3857C36.5 26.2987 37.1433 27.26 38.2286 27.26V25.26C38.353 25.26 38.4385 25.3202 38.4753 25.363C38.511 25.4046 38.5 25.4226 38.5 25.3857L36.5 25.3857ZM38.2286 25.1107H39.3214V23.1107H38.2286V25.1107ZM38.3214 24.1107V25.4222H40.3214V24.1107H38.3214ZM39.3214 24.4222H38.2286V26.4222H39.3214V24.4222ZM39.2286 25.4222V24.1107H37.2286V25.4222H39.2286Z" fill="#2A0058" mask="url(#path-17-inside-8)"/>
<mask id="path-19-inside-9" fill="white">
<path d="M27.1778 30.3399H28.2707C28.6653 30.3399 28.9992 29.9392 28.9992 29.4656V28.1543C28.9992 27.6807 28.6653 27.28 28.2707 27.28H27.1778C26.7832 27.28 26.4492 27.6807 26.4492 28.1543V29.4656C26.4492 29.9392 26.7832 30.3399 27.1778 30.3399ZM27.1778 28.1543H28.2707V29.4656H27.1778V28.1543Z"/>
</mask>
<path d="M26.4492 29.4656H27.4492H26.4492ZM27.1778 28.1543V27.1543H26.1778V28.1543H27.1778ZM28.2707 28.1543H29.2707V27.1543H28.2707V28.1543ZM28.2707 29.4656V30.4656H29.2707V29.4656H28.2707ZM27.1778 29.4656H26.1778V30.4656H27.1778V29.4656ZM27.1778 31.3399H28.2707V29.3399H27.1778V31.3399ZM28.2707 31.3399C29.3805 31.3399 29.9992 30.3131 29.9992 29.4656H27.9992C27.9992 29.4714 27.9959 29.4627 28.0147 29.4401C28.0327 29.4186 28.1149 29.3399 28.2707 29.3399V31.3399ZM29.9992 29.4656V28.1543H27.9992V29.4656H29.9992ZM29.9992 28.1543C29.9992 27.3068 29.3805 26.28 28.2707 26.28V28.28C28.1149 28.28 28.0327 28.2013 28.0147 28.1797C27.9959 28.1572 27.9992 28.1485 27.9992 28.1543H29.9992ZM28.2707 26.28H27.1778V28.28H28.2707V26.28ZM27.1778 26.28C26.0679 26.28 25.4492 27.3068 25.4492 28.1543H27.4492C27.4492 28.1485 27.4525 28.1572 27.4337 28.1797C27.4158 28.2013 27.3335 28.28 27.1778 28.28V26.28ZM25.4492 28.1543V29.4656H27.4492V28.1543H25.4492ZM25.4492 29.4656C25.4492 30.3131 26.0679 31.3399 27.1778 31.3399V29.3399C27.3335 29.3399 27.4158 29.4186 27.4337 29.4401C27.4525 29.4627 27.4492 29.4714 27.4492 29.4656L25.4492 29.4656ZM27.1778 29.1543H28.2707V27.1543H27.1778V29.1543ZM27.2707 28.1543V29.4656H29.2707V28.1543H27.2707ZM28.2707 28.4656H27.1778V30.4656H28.2707V28.4656ZM28.1778 29.4656V28.1543H26.1778V29.4656H28.1778Z" fill="#2A0058" mask="url(#path-19-inside-9)"/>
<mask id="path-21-inside-10" fill="white">
<path d="M30.5792 30.3399H31.672C32.0667 30.3399 32.4006 29.9392 32.4006 29.4656V28.1543C32.4006 27.6807 32.0667 27.28 31.672 27.28H30.5792C30.1845 27.28 29.8506 27.6807 29.8506 28.1543V29.4656C29.8506 29.9392 30.1845 30.3399 30.5792 30.3399ZM30.5792 28.1543H31.672V29.4656H30.5792V28.1543Z"/>
</mask>
<path d="M29.8506 29.4656H30.8506H29.8506ZM30.5792 28.1543V27.1543H29.5792V28.1543H30.5792ZM31.672 28.1543H32.672V27.1543H31.672V28.1543ZM31.672 29.4656V30.4656H32.672V29.4656H31.672ZM30.5792 29.4656H29.5792V30.4656H30.5792V29.4656ZM30.5792 31.3399H31.672V29.3399H30.5792V31.3399ZM31.672 31.3399C32.7819 31.3399 33.4006 30.3131 33.4006 29.4656H31.4006C31.4006 29.4714 31.3973 29.4627 31.4161 29.4401C31.434 29.4186 31.5163 29.3399 31.672 29.3399V31.3399ZM33.4006 29.4656V28.1543H31.4006V29.4656H33.4006ZM33.4006 28.1543C33.4006 27.3068 32.7819 26.28 31.672 26.28V28.28C31.5163 28.28 31.434 28.2013 31.4161 28.1797C31.3973 28.1572 31.4006 28.1485 31.4006 28.1543H33.4006ZM31.672 26.28H30.5792V28.28H31.672V26.28ZM30.5792 26.28C29.4693 26.28 28.8506 27.3068 28.8506 28.1543H30.8506C30.8506 28.1485 30.8539 28.1572 30.8351 28.1797C30.8171 28.2013 30.7349 28.28 30.5792 28.28V26.28ZM28.8506 28.1543V29.4656H30.8506V28.1543H28.8506ZM28.8506 29.4656C28.8506 30.3131 29.4693 31.3399 30.5792 31.3399V29.3399C30.7349 29.3399 30.8171 29.4186 30.8351 29.4401C30.8539 29.4627 30.8506 29.4714 30.8506 29.4656L28.8506 29.4656ZM30.5792 29.1543H31.672V27.1543H30.5792V29.1543ZM30.672 28.1543V29.4656H32.672V28.1543H30.672ZM31.672 28.4656H30.5792V30.4656H31.672V28.4656ZM31.5792 29.4656V28.1543H29.5792V29.4656H31.5792Z" fill="#2A0058" mask="url(#path-21-inside-10)"/>
<mask id="path-23-inside-11" fill="white">
<path d="M34.8282 30.3399H35.9211C36.3157 30.3399 36.6496 29.9392 36.6496 29.4656V28.1543C36.6496 27.6807 36.3157 27.28 35.9211 27.28H34.8282C34.4335 27.28 34.0996 27.6807 34.0996 28.1543V29.4656C34.0996 29.9392 34.4335 30.3399 34.8282 30.3399ZM34.8282 28.1543H35.9211V29.4656H34.8282V28.1543Z"/>
</mask>
<path d="M34.0996 29.4656L33.0996 29.4656L34.0996 29.4656ZM34.8282 28.1543V27.1543H33.8282V28.1543H34.8282ZM35.9211 28.1543H36.9211V27.1543H35.9211V28.1543ZM35.9211 29.4656V30.4656H36.9211V29.4656H35.9211ZM34.8282 29.4656H33.8282V30.4656H34.8282V29.4656ZM34.8282 31.3399H35.9211V29.3399H34.8282V31.3399ZM35.9211 31.3399C37.0309 31.3399 37.6496 30.3131 37.6496 29.4656H35.6496C35.6496 29.4714 35.6463 29.4627 35.6651 29.4401C35.6831 29.4186 35.7653 29.3399 35.9211 29.3399V31.3399ZM37.6496 29.4656V28.1543H35.6496V29.4656H37.6496ZM37.6496 28.1543C37.6496 27.3068 37.0309 26.28 35.9211 26.28V28.28C35.7653 28.28 35.6831 28.2013 35.6651 28.1797C35.6463 28.1572 35.6496 28.1485 35.6496 28.1543H37.6496ZM35.9211 26.28H34.8282V28.28H35.9211V26.28ZM34.8282 26.28C33.7183 26.28 33.0996 27.3068 33.0996 28.1543H35.0996C35.0996 28.1485 35.1029 28.1572 35.0841 28.1797C35.0662 28.2013 34.9839 28.28 34.8282 28.28V26.28ZM33.0996 28.1543V29.4656H35.0996V28.1543H33.0996ZM33.0996 29.4656C33.0996 30.3131 33.7183 31.3399 34.8282 31.3399V29.3399C34.9839 29.3399 35.0662 29.4186 35.0841 29.4401C35.1029 29.4627 35.0996 29.4714 35.0996 29.4656L33.0996 29.4656ZM34.8282 29.1543H35.9211V27.1543H34.8282V29.1543ZM34.9211 28.1543V29.4656H36.9211V28.1543H34.9211ZM35.9211 28.4656H34.8282V30.4656H35.9211V28.4656ZM35.8282 29.4656V28.1543H33.8282V29.4656H35.8282Z" fill="#2A0058" mask="url(#path-23-inside-11)"/>
<mask id="path-25-inside-12" fill="white">
<path d="M38.2286 30.3399H39.3214C39.7161 30.3399 40.05 29.9392 40.05 29.4656V28.1543C40.05 27.6807 39.7161 27.28 39.3214 27.28H38.2286C37.8339 27.28 37.5 27.6807 37.5 28.1543V29.4656C37.5 29.9392 37.8339 30.3399 38.2286 30.3399ZM38.2286 28.1543H39.3214V29.4656H38.2286V28.1543Z"/>
</mask>
<path d="M37.5 29.4656L36.5 29.4656L37.5 29.4656ZM38.2286 28.1543V27.1543H37.2286V28.1543H38.2286ZM39.3214 28.1543H40.3214V27.1543H39.3214V28.1543ZM39.3214 29.4656V30.4656H40.3214V29.4656H39.3214ZM38.2286 29.4656H37.2286V30.4656H38.2286V29.4656ZM38.2286 31.3399H39.3214V29.3399H38.2286V31.3399ZM39.3214 31.3399C40.4313 31.3399 41.05 30.3131 41.05 29.4656H39.05C39.05 29.4714 39.0467 29.4627 39.0655 29.4401C39.0835 29.4186 39.1657 29.3399 39.3214 29.3399V31.3399ZM41.05 29.4656V28.1543H39.05V29.4656H41.05ZM41.05 28.1543C41.05 27.3068 40.4313 26.28 39.3214 26.28V28.28C39.1657 28.28 39.0835 28.2013 39.0655 28.1797C39.0467 28.1572 39.05 28.1485 39.05 28.1543H41.05ZM39.3214 26.28H38.2286V28.28H39.3214V26.28ZM38.2286 26.28C37.1187 26.28 36.5 27.3068 36.5 28.1543H38.5C38.5 28.1485 38.5033 28.1572 38.4845 28.1797C38.4666 28.2013 38.3843 28.28 38.2286 28.28V26.28ZM36.5 28.1543V29.4656H38.5V28.1543H36.5ZM36.5 29.4656C36.5 30.3131 37.1187 31.3399 38.2286 31.3399V29.3399C38.3843 29.3399 38.4666 29.4186 38.4845 29.4401C38.5033 29.4627 38.5 29.4714 38.5 29.4656L36.5 29.4656ZM38.2286 29.1543H39.3214V27.1543H38.2286V29.1543ZM38.3214 28.1543V29.4656H40.3214V28.1543H38.3214ZM39.3214 28.4656H38.2286V30.4656H39.3214V28.4656ZM39.2286 29.4656V28.1543H37.2286V29.4656H39.2286Z" fill="#2A0058" mask="url(#path-25-inside-12)"/>
<mask id="path-27-inside-13" fill="white">
<path d="M27.1778 34.4201H28.2707C28.6653 34.4201 28.9992 34.0194 28.9992 33.5458V32.2343C28.9992 31.7607 28.6653 31.36 28.2707 31.36H27.1778C26.7832 31.36 26.4492 31.7607 26.4492 32.2343V33.5458C26.4492 34.0558 26.7832 34.4201 27.1778 34.4201ZM27.1778 32.2707H28.2707V33.5822H27.1778V32.2707Z"/>
</mask>
<path d="M26.4492 33.5458H27.4492H26.4492ZM27.1778 32.2707V31.2707H26.1778V32.2707H27.1778ZM28.2707 32.2707H29.2707V31.2707H28.2707V32.2707ZM28.2707 33.5822V34.5822H29.2707V33.5822H28.2707ZM27.1778 33.5822H26.1778V34.5822H27.1778V33.5822ZM27.1778 35.4201H28.2707V33.4201H27.1778V35.4201ZM28.2707 35.4201C29.3806 35.4201 29.9992 34.3932 29.9992 33.5458H27.9992C27.9992 33.5515 27.9959 33.5429 28.0147 33.5204C28.0326 33.4988 28.1149 33.4201 28.2707 33.4201V35.4201ZM29.9992 33.5458V32.2343H27.9992V33.5458H29.9992ZM29.9992 32.2343C29.9992 31.3869 29.3806 30.36 28.2707 30.36V32.36C28.1149 32.36 28.0326 32.2812 28.0147 32.2597C27.9959 32.2372 27.9992 32.2285 27.9992 32.2343H29.9992ZM28.2707 30.36H27.1778V32.36H28.2707V30.36ZM27.1778 30.36C26.0679 30.36 25.4492 31.3869 25.4492 32.2343H27.4492C27.4492 32.2285 27.4525 32.2372 27.4337 32.2597C27.4158 32.2812 27.3335 32.36 27.1778 32.36V30.36ZM25.4492 32.2343V33.5458H27.4492V32.2343H25.4492ZM25.4492 33.5458C25.4492 34.4587 26.0925 35.4201 27.1778 35.4201V33.4201C27.3022 33.4201 27.3878 33.4803 27.4245 33.5231C27.4602 33.5647 27.4492 33.5827 27.4492 33.5458L25.4492 33.5458ZM27.1778 33.2707H28.2707V31.2707H27.1778V33.2707ZM27.2707 32.2707V33.5822H29.2707V32.2707H27.2707ZM28.2707 32.5822H27.1778V34.5822H28.2707V32.5822ZM28.1778 33.5822V32.2707H26.1778V33.5822H28.1778Z" fill="#2A0058" mask="url(#path-27-inside-13)"/>
<mask id="path-29-inside-14" fill="white">
<path d="M30.5792 34.4201H31.672C32.0667 34.4201 32.4006 34.0194 32.4006 33.5458V32.2343C32.4006 31.7607 32.0667 31.36 31.672 31.36H30.5792C30.1845 31.36 29.8506 31.7607 29.8506 32.2343V33.5458C29.8506 34.0558 30.1845 34.4201 30.5792 34.4201ZM30.5792 32.2707H31.672V33.5822H30.5792V32.2707Z"/>
</mask>
<path d="M29.8506 33.5458H30.8506H29.8506ZM30.5792 32.2707V31.2707H29.5792V32.2707H30.5792ZM31.672 32.2707H32.672V31.2707H31.672V32.2707ZM31.672 33.5822V34.5822H32.672V33.5822H31.672ZM30.5792 33.5822H29.5792V34.5822H30.5792V33.5822ZM30.5792 35.4201H31.672V33.4201H30.5792V35.4201ZM31.672 35.4201C32.782 35.4201 33.4006 34.3932 33.4006 33.5458H31.4006C31.4006 33.5515 31.3973 33.5429 31.4161 33.5204C31.434 33.4988 31.5163 33.4201 31.672 33.4201V35.4201ZM33.4006 33.5458V32.2343H31.4006V33.5458H33.4006ZM33.4006 32.2343C33.4006 31.3869 32.782 30.36 31.672 30.36V32.36C31.5163 32.36 31.434 32.2812 31.4161 32.2597C31.3973 32.2372 31.4006 32.2285 31.4006 32.2343H33.4006ZM31.672 30.36H30.5792V32.36H31.672V30.36ZM30.5792 30.36C29.4692 30.36 28.8506 31.3869 28.8506 32.2343H30.8506C30.8506 32.2285 30.8539 32.2372 30.8351 32.2597C30.8172 32.2812 30.7349 32.36 30.5792 32.36V30.36ZM28.8506 32.2343V33.5458H30.8506V32.2343H28.8506ZM28.8506 33.5458C28.8506 34.4587 29.4938 35.4201 30.5792 35.4201V33.4201C30.7036 33.4201 30.7891 33.4803 30.8259 33.5231C30.8616 33.5647 30.8506 33.5827 30.8506 33.5458L28.8506 33.5458ZM30.5792 33.2707H31.672V31.2707H30.5792V33.2707ZM30.672 32.2707V33.5822H32.672V32.2707H30.672ZM31.672 32.5822H30.5792V34.5822H31.672V32.5822ZM31.5792 33.5822V32.2707H29.5792V33.5822H31.5792Z" fill="#2A0058" mask="url(#path-29-inside-14)"/>
<mask id="path-31-inside-15" fill="white">
<path d="M34.8282 34.4201H35.9211C36.3157 34.4201 36.6496 34.0194 36.6496 33.5458V32.2343C36.6496 31.7607 36.3157 31.36 35.9211 31.36H34.8282C34.4335 31.36 34.0996 31.7607 34.0996 32.2343V33.5458C34.0996 34.0558 34.4335 34.4201 34.8282 34.4201ZM34.8282 32.2707H35.9211V33.5822H34.8282V32.2707Z"/>
</mask>
<path d="M34.0996 33.5458L33.0996 33.5458L34.0996 33.5458ZM34.8282 32.2707V31.2707H33.8282V32.2707H34.8282ZM35.9211 32.2707H36.9211V31.2707H35.9211V32.2707ZM35.9211 33.5822V34.5822H36.9211V33.5822H35.9211ZM34.8282 33.5822H33.8282V34.5822H34.8282V33.5822ZM34.8282 35.4201H35.9211V33.4201H34.8282V35.4201ZM35.9211 35.4201C37.031 35.4201 37.6496 34.3932 37.6496 33.5458H35.6496C35.6496 33.5515 35.6463 33.5429 35.6651 33.5204C35.683 33.4988 35.7653 33.4201 35.9211 33.4201V35.4201ZM37.6496 33.5458V32.2343H35.6496V33.5458H37.6496ZM37.6496 32.2343C37.6496 31.3869 37.031 30.36 35.9211 30.36V32.36C35.7653 32.36 35.683 32.2812 35.6651 32.2597C35.6463 32.2372 35.6496 32.2285 35.6496 32.2343H37.6496ZM35.9211 30.36H34.8282V32.36H35.9211V30.36ZM34.8282 30.36C33.7183 30.36 33.0996 31.3869 33.0996 32.2343H35.0996C35.0996 32.2285 35.1029 32.2372 35.0841 32.2597C35.0662 32.2812 34.9839 32.36 34.8282 32.36V30.36ZM33.0996 32.2343V33.5458H35.0996V32.2343H33.0996ZM33.0996 33.5458C33.0996 34.4587 33.7429 35.4201 34.8282 35.4201V33.4201C34.9526 33.4201 35.0382 33.4803 35.0749 33.5231C35.1106 33.5647 35.0996 33.5827 35.0996 33.5458L33.0996 33.5458ZM34.8282 33.2707H35.9211V31.2707H34.8282V33.2707ZM34.9211 32.2707V33.5822H36.9211V32.2707H34.9211ZM35.9211 32.5822H34.8282V34.5822H35.9211V32.5822ZM35.8282 33.5822V32.2707H33.8282V33.5822H35.8282Z" fill="#2A0058" mask="url(#path-31-inside-15)"/>
<mask id="path-33-inside-16" fill="white">
<path d="M38.2286 34.4201H39.3214C39.7161 34.4201 40.05 34.0194 40.05 33.5458V32.2343C40.05 31.7607 39.7161 31.36 39.3214 31.36H38.2286C37.8339 31.36 37.5 31.7607 37.5 32.2343V33.5458C37.5 34.0558 37.8339 34.4201 38.2286 34.4201ZM38.2286 32.2707H39.3214V33.5822H38.2286V32.2707Z"/>
</mask>
<path d="M37.5 33.5458L36.5 33.5458L37.5 33.5458ZM38.2286 32.2707V31.2707H37.2286V32.2707H38.2286ZM39.3214 32.2707H40.3214V31.2707H39.3214V32.2707ZM39.3214 33.5822V34.5822H40.3214V33.5822H39.3214ZM38.2286 33.5822H37.2286V34.5822H38.2286V33.5822ZM38.2286 35.4201H39.3214V33.4201H38.2286V35.4201ZM39.3214 35.4201C40.4314 35.4201 41.05 34.3932 41.05 33.5458H39.05C39.05 33.5515 39.0467 33.5429 39.0655 33.5204C39.0834 33.4988 39.1657 33.4201 39.3214 33.4201V35.4201ZM41.05 33.5458V32.2343H39.05V33.5458H41.05ZM41.05 32.2343C41.05 31.3869 40.4314 30.36 39.3214 30.36V32.36C39.1657 32.36 39.0834 32.2812 39.0655 32.2597C39.0467 32.2372 39.05 32.2285 39.05 32.2343H41.05ZM39.3214 30.36H38.2286V32.36H39.3214V30.36ZM38.2286 30.36C37.1187 30.36 36.5 31.3869 36.5 32.2343H38.5C38.5 32.2285 38.5033 32.2372 38.4845 32.2597C38.4666 32.2812 38.3843 32.36 38.2286 32.36V30.36ZM36.5 32.2343V33.5458H38.5V32.2343H36.5ZM36.5 33.5458C36.5 34.4587 37.1433 35.4201 38.2286 35.4201V33.4201C38.353 33.4201 38.4386 33.4803 38.4753 33.5231C38.511 33.5647 38.5 33.5827 38.5 33.5458L36.5 33.5458ZM38.2286 33.2707H39.3214V31.2707H38.2286V33.2707ZM38.3214 32.2707V33.5822H40.3214V32.2707H38.3214ZM39.3214 32.5822H38.2286V34.5822H39.3214V32.5822ZM39.2286 33.5822V32.2707H37.2286V33.5822H39.2286Z" fill="#2A0058" mask="url(#path-33-inside-16)"/>
<mask id="path-35-inside-17" fill="white">
<path d="M27.1778 38.4999H28.2707C28.6653 38.4999 28.9992 38.0992 28.9992 37.6256V36.3141C28.9992 35.8405 28.6653 35.4398 28.2707 35.4398H27.1778C26.7832 35.4398 26.4492 35.8405 26.4492 36.3141V37.6256C26.4492 38.0992 26.7832 38.4999 27.1778 38.4999ZM27.1778 36.3141H28.2707V37.6256H27.1778V36.3141Z"/>
</mask>
<path d="M26.4492 37.6256H27.4492H26.4492ZM27.1778 36.3141V35.3141H26.1778V36.3141H27.1778ZM28.2707 36.3141H29.2707V35.3141H28.2707V36.3141ZM28.2707 37.6256V38.6256H29.2707V37.6256H28.2707ZM27.1778 37.6256H26.1778V38.6256H27.1778V37.6256ZM27.1778 39.4999H28.2707V37.4999H27.1778V39.4999ZM28.2707 39.4999C29.3806 39.4999 29.9992 38.473 29.9992 37.6256H27.9992C27.9992 37.6313 27.9959 37.6227 28.0147 37.6002C28.0326 37.5786 28.1149 37.4999 28.2707 37.4999V39.4999ZM29.9992 37.6256V36.3141H27.9992V37.6256H29.9992ZM29.9992 36.3141C29.9992 35.4667 29.3806 34.4398 28.2707 34.4398V36.4398C28.1149 36.4398 28.0326 36.361 28.0147 36.3395C27.9959 36.317 27.9992 36.3083 27.9992 36.3141H29.9992ZM28.2707 34.4398H27.1778V36.4398H28.2707V34.4398ZM27.1778 34.4398C26.0679 34.4398 25.4492 35.4667 25.4492 36.3141H27.4492C27.4492 36.3083 27.4525 36.317 27.4337 36.3395C27.4158 36.361 27.3335 36.4398 27.1778 36.4398V34.4398ZM25.4492 36.3141V37.6256H27.4492V36.3141H25.4492ZM25.4492 37.6256C25.4492 38.473 26.0679 39.4999 27.1778 39.4999V37.4999C27.3335 37.4999 27.4158 37.5786 27.4337 37.6002C27.4525 37.6227 27.4492 37.6313 27.4492 37.6256L25.4492 37.6256ZM27.1778 37.3141H28.2707V35.3141H27.1778V37.3141ZM27.2707 36.3141V37.6256H29.2707V36.3141H27.2707ZM28.2707 36.6256H27.1778V38.6256H28.2707V36.6256ZM28.1778 37.6256V36.3141H26.1778V37.6256H28.1778Z" fill="#2A0058" mask="url(#path-35-inside-17)"/>
<mask id="path-37-inside-18" fill="white">
<path d="M38.2286 38.4999H39.3214C39.7161 38.4999 40.05 38.0992 40.05 37.6256V36.3141C40.05 35.8405 39.7161 35.4398 39.3214 35.4398H38.2286C37.8339 35.4398 37.5 35.8405 37.5 36.3141V37.6256C37.5 38.0992 37.8339 38.4999 38.2286 38.4999ZM38.2286 36.3141H39.3214V37.6256H38.2286V36.3141Z"/>
</mask>
<path d="M37.5 37.6256L36.5 37.6256L37.5 37.6256ZM38.2286 36.3141V35.3141H37.2286V36.3141H38.2286ZM39.3214 36.3141H40.3214V35.3141H39.3214V36.3141ZM39.3214 37.6256V38.6256H40.3214V37.6256H39.3214ZM38.2286 37.6256H37.2286V38.6256H38.2286V37.6256ZM38.2286 39.4999H39.3214V37.4999H38.2286V39.4999ZM39.3214 39.4999C40.4314 39.4999 41.05 38.473 41.05 37.6256H39.05C39.05 37.6313 39.0467 37.6227 39.0655 37.6002C39.0834 37.5786 39.1657 37.4999 39.3214 37.4999V39.4999ZM41.05 37.6256V36.3141H39.05V37.6256H41.05ZM41.05 36.3141C41.05 35.4667 40.4314 34.4398 39.3214 34.4398V36.4398C39.1657 36.4398 39.0834 36.361 39.0655 36.3395C39.0467 36.317 39.05 36.3083 39.05 36.3141H41.05ZM39.3214 34.4398H38.2286V36.4398H39.3214V34.4398ZM38.2286 34.4398C37.1187 34.4398 36.5 35.4667 36.5 36.3141H38.5C38.5 36.3083 38.5033 36.317 38.4845 36.3395C38.4666 36.361 38.3843 36.4398 38.2286 36.4398V34.4398ZM36.5 36.3141V37.6256H38.5V36.3141H36.5ZM36.5 37.6256C36.5 38.473 37.1187 39.4999 38.2286 39.4999V37.4999C38.3843 37.4999 38.4666 37.5786 38.4845 37.6002C38.5033 37.6227 38.5 37.6313 38.5 37.6256L36.5 37.6256ZM38.2286 37.3141H39.3214V35.3141H38.2286V37.3141ZM38.3214 36.3141V37.6256H40.3214V36.3141H38.3214ZM39.3214 36.6256H38.2286V38.6256H39.3214V36.6256ZM39.2286 37.6256V36.3141H37.2286V37.6256H39.2286Z" fill="#2A0058" mask="url(#path-37-inside-18)"/>
<mask id="path-39-inside-19" fill="white">
<path d="M19.7707 23.2H18.6778C18.2832 23.2 17.9492 23.6007 17.9492 24.0743V25.3857C17.9492 25.8593 18.2832 26.26 18.6778 26.26H19.7707C20.1653 26.26 20.4992 25.8593 20.4992 25.3857V24.0743C20.4992 23.5643 20.1653 23.2 19.7707 23.2ZM18.6778 25.3857V24.0743H19.7707V25.3857H18.6778Z"/>
</mask>
<path d="M20.4992 24.0743H19.4992H20.4992ZM18.6778 25.3857H17.6778V26.3857H18.6778V25.3857ZM18.6778 24.0743V23.0743H17.6778V24.0743H18.6778ZM19.7707 24.0743H20.7707V23.0743H19.7707V24.0743ZM19.7707 25.3857V26.3857H20.7707V25.3857H19.7707ZM19.7707 22.2H18.6778V24.2H19.7707V22.2ZM18.6778 22.2C17.5679 22.2 16.9492 23.2269 16.9492 24.0743H18.9492C18.9492 24.0686 18.9525 24.0772 18.9337 24.0998C18.9158 24.1213 18.8335 24.2 18.6778 24.2V22.2ZM16.9492 24.0743V25.3857H18.9492V24.0743H16.9492ZM16.9492 25.3857C16.9492 26.2331 17.5679 27.26 18.6778 27.26V25.26C18.8335 25.26 18.9158 25.3387 18.9337 25.3603C18.9525 25.3828 18.9492 25.3915 18.9492 25.3857H16.9492ZM18.6778 27.26H19.7707V25.26H18.6778V27.26ZM19.7707 27.26C20.8806 27.26 21.4992 26.2331 21.4992 25.3857H19.4992C19.4992 25.3915 19.4959 25.3828 19.5147 25.3603C19.5327 25.3387 19.6149 25.26 19.7707 25.26V27.26ZM21.4992 25.3857V24.0743H19.4992V25.3857H21.4992ZM21.4992 24.0743C21.4992 23.1614 20.856 22.2 19.7707 22.2V24.2C19.6462 24.2 19.5607 24.1399 19.524 24.097C19.4882 24.0554 19.4992 24.0374 19.4992 24.0743H21.4992ZM19.6778 25.3857V24.0743H17.6778V25.3857H19.6778ZM18.6778 25.0743H19.7707V23.0743H18.6778V25.0743ZM18.7707 24.0743V25.3857H20.7707V24.0743H18.7707ZM19.7707 24.3857H18.6778V26.3857H19.7707V24.3857Z" fill="#2A0058" mask="url(#path-39-inside-19)"/>
<mask id="path-41-inside-20" fill="white">
<path d="M19.7707 27.28H18.6778C18.2832 27.28 17.9492 27.6807 17.9492 28.1543V29.4656C17.9492 29.9392 18.2832 30.3399 18.6778 30.3399H19.7707C20.1653 30.3399 20.4992 29.9392 20.4992 29.4656V28.1543C20.4992 27.6807 20.1653 27.28 19.7707 27.28ZM18.6778 29.4656V28.1543H19.7707V29.4656H18.6778Z"/>
</mask>
<path d="M20.4992 28.1543H19.4992H20.4992ZM18.6778 29.4656H17.6778V30.4656H18.6778V29.4656ZM18.6778 28.1543V27.1543H17.6778V28.1543H18.6778ZM19.7707 28.1543H20.7707V27.1543H19.7707V28.1543ZM19.7707 29.4656V30.4656H20.7707V29.4656H19.7707ZM19.7707 26.28H18.6778V28.28H19.7707V26.28ZM18.6778 26.28C17.5679 26.28 16.9492 27.3068 16.9492 28.1543H18.9492C18.9492 28.1485 18.9525 28.1572 18.9337 28.1797C18.9158 28.2013 18.8335 28.28 18.6778 28.28V26.28ZM16.9492 28.1543V29.4656H18.9492V28.1543H16.9492ZM16.9492 29.4656C16.9492 30.3131 17.5679 31.3399 18.6778 31.3399V29.3399C18.8335 29.3399 18.9158 29.4186 18.9337 29.4401C18.9525 29.4627 18.9492 29.4714 18.9492 29.4656H16.9492ZM18.6778 31.3399H19.7707V29.3399H18.6778V31.3399ZM19.7707 31.3399C20.8805 31.3399 21.4992 30.3131 21.4992 29.4656H19.4992C19.4992 29.4714 19.4959 29.4627 19.5147 29.4401C19.5327 29.4186 19.6149 29.3399 19.7707 29.3399V31.3399ZM21.4992 29.4656V28.1543H19.4992V29.4656H21.4992ZM21.4992 28.1543C21.4992 27.3068 20.8805 26.28 19.7707 26.28V28.28C19.6149 28.28 19.5327 28.2013 19.5147 28.1797C19.4959 28.1572 19.4992 28.1485 19.4992 28.1543L21.4992 28.1543ZM19.6778 29.4656V28.1543H17.6778V29.4656H19.6778ZM18.6778 29.1543H19.7707V27.1543H18.6778V29.1543ZM18.7707 28.1543V29.4656H20.7707V28.1543H18.7707ZM19.7707 28.4656H18.6778V30.4656H19.7707V28.4656Z" fill="#2A0058" mask="url(#path-41-inside-20)"/>
<mask id="path-43-inside-21" fill="white">
<path d="M19.7707 31.36H18.6778C18.2832 31.36 17.9492 31.7607 17.9492 32.2343V33.5458C17.9492 34.0194 18.2832 34.4201 18.6778 34.4201H19.7707C20.1653 34.4201 20.4992 34.0194 20.4992 33.5458V32.2343C20.4992 31.7243 20.1653 31.36 19.7707 31.36ZM18.6778 33.5093V32.1979H19.7707V33.5093H18.6778Z"/>
</mask>
<path d="M20.4992 32.2343H19.4992H20.4992ZM18.6778 33.5093H17.6778V34.5093H18.6778V33.5093ZM18.6778 32.1979V31.1979H17.6778V32.1979H18.6778ZM19.7707 32.1979H20.7707V31.1979H19.7707V32.1979ZM19.7707 33.5093V34.5093H20.7707V33.5093H19.7707ZM19.7707 30.36H18.6778V32.36H19.7707V30.36ZM18.6778 30.36C17.5679 30.36 16.9492 31.3869 16.9492 32.2343H18.9492C18.9492 32.2285 18.9525 32.2372 18.9337 32.2597C18.9158 32.2812 18.8335 32.36 18.6778 32.36V30.36ZM16.9492 32.2343V33.5458H18.9492V32.2343H16.9492ZM16.9492 33.5458C16.9492 34.3932 17.5679 35.4201 18.6778 35.4201V33.4201C18.8335 33.4201 18.9158 33.4988 18.9337 33.5204C18.9525 33.5429 18.9492 33.5515 18.9492 33.5458H16.9492ZM18.6778 35.4201H19.7707V33.4201H18.6778V35.4201ZM19.7707 35.4201C20.8806 35.4201 21.4992 34.3932 21.4992 33.5458H19.4992C19.4992 33.5515 19.4959 33.5429 19.5147 33.5204C19.5326 33.4988 19.6149 33.4201 19.7707 33.4201V35.4201ZM21.4992 33.5458V32.2343H19.4992V33.5458H21.4992ZM21.4992 32.2343C21.4992 31.3214 20.856 30.36 19.7707 30.36V32.36C19.6462 32.36 19.5607 32.2998 19.5239 32.257C19.4882 32.2153 19.4992 32.1974 19.4992 32.2343H21.4992ZM19.6778 33.5093V32.1979H17.6778V33.5093H19.6778ZM18.6778 33.1979H19.7707V31.1979H18.6778V33.1979ZM18.7707 32.1979V33.5093H20.7707V32.1979H18.7707ZM19.7707 32.5093H18.6778V34.5093H19.7707V32.5093Z" fill="#2A0058" mask="url(#path-43-inside-21)"/>
<mask id="path-45-inside-22" fill="white">
<path d="M19.7707 36.4604H18.6778C18.2832 36.4604 17.9492 36.8611 17.9492 37.3347V38.6461C17.9492 39.1196 18.2832 39.5203 18.6778 39.5203H19.7707C20.1653 39.5203 20.4992 39.1196 20.4992 38.6461V37.3347C20.4992 36.8611 20.1653 36.4604 19.7707 36.4604ZM18.6778 38.6461V37.3347H19.7707V38.6461H18.6778Z"/>
</mask>
<path d="M20.4992 37.3347H19.4992H20.4992ZM18.6778 38.6461H17.6778V39.6461H18.6778V38.6461ZM18.6778 37.3347V36.3347H17.6778V37.3347H18.6778ZM19.7707 37.3347H20.7707V36.3347H19.7707V37.3347ZM19.7707 38.6461V39.6461H20.7707V38.6461H19.7707ZM19.7707 35.4604H18.6778V37.4604H19.7707V35.4604ZM18.6778 35.4604C17.5679 35.4604 16.9492 36.4873 16.9492 37.3347H18.9492C18.9492 37.329 18.9525 37.3376 18.9337 37.3602C18.9158 37.3817 18.8335 37.4604 18.6778 37.4604V35.4604ZM16.9492 37.3347V38.6461H18.9492V37.3347H16.9492ZM16.9492 38.6461C16.9492 39.4935 17.5679 40.5203 18.6778 40.5203V38.5203C18.8335 38.5203 18.9158 38.5991 18.9337 38.6206C18.9525 38.6432 18.9492 38.6518 18.9492 38.6461H16.9492ZM18.6778 40.5203H19.7707V38.5203H18.6778V40.5203ZM19.7707 40.5203C20.8805 40.5203 21.4992 39.4935 21.4992 38.6461H19.4992C19.4992 38.6518 19.4959 38.6432 19.5147 38.6206C19.5327 38.5991 19.6149 38.5203 19.7707 38.5203V40.5203ZM21.4992 38.6461V37.3347H19.4992V38.6461H21.4992ZM21.4992 37.3347C21.4992 36.4873 20.8805 35.4604 19.7707 35.4604V37.4604C19.6149 37.4604 19.5327 37.3817 19.5147 37.3602C19.4959 37.3376 19.4992 37.329 19.4992 37.3347H21.4992ZM19.6778 38.6461V37.3347H17.6778V38.6461H19.6778ZM18.6778 38.3347H19.7707V36.3347H18.6778V38.3347ZM18.7707 37.3347V38.6461H20.7707V37.3347H18.7707ZM19.7707 37.6461H18.6778V39.6461H19.7707V37.6461Z" fill="#2A0058" mask="url(#path-45-inside-22)"/>
</svg>
