<svg width="65" height="85" viewBox="0 0 65 85" fill="none" xmlns="http://www.w3.org/2000/svg">
<path d="M65 32.0076C65 49.6849 50.4493 64.0152 32.5 64.0152C14.5507 64.0152 0 49.6849 0 32.0076C0 14.3303 14.5507 3.78316e-06 32.5 3.78316e-06C50.4493 3.78316e-06 65 14.3303 65 32.0076Z" fill="#FF911C"/>
<path fill-rule="evenodd" clip-rule="evenodd" d="M20.25 23.5C20.25 21.9352 21.5185 20.6667 23.0833 20.6667H42.9167C44.4815 20.6667 45.75 21.9352 45.75 23.5V43.3333C45.75 44.8982 44.4815 46.1667 42.9167 46.1667H23.0833C21.5185 46.1667 20.25 44.8982 20.25 43.3333V23.5Z" stroke="#2A0058" stroke-width="4" stroke-linecap="round" stroke-linejoin="round"/>
<path d="M38.6667 17.8333V23.5" stroke="#2A0058" stroke-width="4" stroke-linecap="round" stroke-linejoin="round"/>
<path d="M27.3333 17.8333V23.5" stroke="#2A0058" stroke-width="4" stroke-linecap="round" stroke-linejoin="round"/>
<path d="M20.25 29.1667H45.75" stroke="#2A0058" stroke-width="4" stroke-linecap="round" stroke-linejoin="round"/>
</svg>
